algoritmo,test,n,tiempo
0,1,30,118.279
0,1,30,111.835
0,1,30,111.8
0,1,30,111.596
0,1,30,114.123
0,1,30,114.538
0,1,30,113.952
0,1,30,115.211
0,1,30,114.154
0,1,30,114.512
0,1,32,190.449
0,1,32,190.796
0,1,32,190.173
0,1,32,185.363
0,1,32,188.169
0,1,32,189.065
0,1,32,187.959
0,1,32,192.629
0,1,32,188.881
0,1,32,189.916
0,1,34,242.877
0,1,34,240.526
0,1,34,240.629
0,1,34,241.253
0,1,34,238.242
0,1,34,240.349
0,1,34,244.039
0,1,34,241.813
0,1,34,240.302
0,1,34,242.481
0,1,36,372.642
0,1,36,369.869
0,1,36,368.618
0,1,36,372.654
0,1,36,368.752
0,1,36,367.882
0,1,36,370.662
0,1,36,371.457
0,1,36,368.541
0,1,36,370.365
0,1,38,478.599
0,1,38,476.392
0,1,38,477.236
0,1,38,479.95
0,1,38,478.477
0,1,38,476.843
0,1,38,477.71
0,1,38,478.659
0,1,38,478.899
0,1,38,504.075
0,1,40,592.408
0,1,40,568.879
0,1,40,576.614
0,1,40,571.899
0,1,40,570.413
0,1,40,573.535
0,1,40,572.244
0,1,40,571.595
0,1,40,569.295
0,1,40,576.652
0,1,42,704.9
0,1,42,702.418
0,1,42,701.681
0,1,42,707.549
0,1,42,702.36
0,1,42,704.214
0,1,42,707.528
0,1,42,702.63
0,1,42,701.148
0,1,42,701.628
0,1,44,855.851
0,1,44,857.157
0,1,44,852.641
0,1,44,847.153
0,1,44,853.758
0,1,44,847.7
0,1,44,847.326
0,1,44,850.073
0,1,44,850.944
0,1,44,848.125
0,1,46,878.569
0,1,46,882.886
0,1,46,876.762
0,1,46,873.746
0,1,46,880.529
0,1,46,876.358
0,1,46,874.844
0,1,46,872.907
0,1,46,873.148
0,1,46,873.462
0,1,48,1230.42
0,1,48,1221.77
0,1,48,1215.68
0,1,48,1218.83
0,1,48,1216.85
0,1,48,1218.46
0,1,48,1215.36
0,1,48,1217.45
0,1,48,1217.75
0,1,48,1217.5
0,1,50,1345.42
0,1,50,1341.85
0,1,50,1343.8
0,1,50,1347.43
0,1,50,1343.49
0,1,50,1344.72
0,1,50,1342.71
0,1,50,1342.96
0,1,50,1346.42
0,1,50,1343.87
0,1,52,1159
0,1,52,1148
0,1,52,1149.26
0,1,52,1153.28
0,1,52,1147.31
0,1,52,1144.97
0,1,52,1150.75
0,1,52,1145.52
0,1,52,1145.47
0,1,52,1147.69
0,1,54,1806.28
0,1,54,1791.5
0,1,54,1787.61
0,1,54,1787.73
0,1,54,1791.3
0,1,54,1786.1
0,1,54,1789.35
0,1,54,1791.77
0,1,54,1786.56
0,1,54,1800.94
0,1,56,1709.01
0,1,56,1699.84
0,1,56,1696.17
0,1,56,1697.43
0,1,56,1699.68
0,1,56,1691.29
0,1,56,1697.5
0,1,56,1695.65
0,1,56,1696.89
0,1,56,1697.43
0,1,58,2536.3
0,1,58,2516.3
0,1,58,2515.13
0,1,58,2519.1
0,1,58,2514.17
0,1,58,2518.3
0,1,58,2517.4
0,1,58,2515.91
0,1,58,2516.8
0,1,58,2512.51
0,1,60,1893.03
0,1,60,1892.58
0,1,60,1890.53
0,1,60,1895.03
0,1,60,1890.67
0,1,60,1897.54
0,1,60,1892.54
0,1,60,1897.48
0,1,60,1896.6
0,1,60,1893.92
0,1,62,3509.78
0,1,62,3484.16
0,1,62,3481.05
0,1,62,3491
0,1,62,3508.71
0,1,62,3483
0,1,62,3486.03
0,1,62,3510.52
0,1,62,3485.5
0,1,62,3484.14
0,1,64,2506.95
0,1,64,2507.88
0,1,64,2505.77
0,1,64,2512.82
0,1,64,2508.94
0,1,64,2509.13
0,1,64,2505.65
0,1,64,2510.87
0,1,64,2508.9
0,1,64,2507.44
0,1,66,4538.62
0,1,66,4530.84
0,1,66,4524.64
0,1,66,4525.87
0,1,66,4525
0,1,66,4528.36
0,1,66,4530.2
0,1,66,4534.12
0,1,66,4562.05
0,1,66,4528.8
0,1,68,3695.7
0,1,68,3692.51
0,1,68,3692.66
0,1,68,3692.08
0,1,68,3690.95
0,1,68,3692.2
0,1,68,3691.78
0,1,68,3697.23
0,1,68,3694.16
0,1,68,3690.36
0,1,70,3485.76
0,1,70,3464.49
0,1,70,3459.48
0,1,70,3459.77
0,1,70,3455.73
0,1,70,3482.6
0,1,70,3459.76
0,1,70,3457.92
0,1,70,3463.14
0,1,70,3483.35
0,1,72,1436.95
0,1,72,1429.88
0,1,72,1435.85
0,1,72,1432.36
0,1,72,1432.21
0,1,72,1428.05
0,1,72,1428.79
0,1,72,1429.23
0,1,72,1431.98
0,1,72,1431.51
0,1,74,3137.25
0,1,74,3139.24
0,1,74,3136.81
0,1,74,3131.95
0,1,74,3135.14
0,1,74,3135.52
0,1,74,3139.66
0,1,74,3137.21
0,1,74,3139.23
0,1,74,3134.73
0,1,76,1760.33
0,1,76,1758.57
0,1,76,1764.55
0,1,76,1775.52
0,1,76,1762.15
0,1,76,1760.3
0,1,76,1761.56
0,1,76,1763.65
0,1,76,1763.18
0,1,76,1766.43
0,1,78,2246.79
0,1,78,2247.85
0,1,78,2260.3
0,1,78,2247.8
0,1,78,2245.27
0,1,78,2244.01
0,1,78,2247.02
0,1,78,2244.4
0,1,78,2246.5
0,1,78,2247.88
0,1,80,3214.01
0,1,80,3209.9
0,1,80,3211.53
0,1,80,3209.45
0,1,80,3211.41
0,1,80,3215.68
0,1,80,3212.94
0,1,80,3206.01
0,1,80,3212.87
0,1,80,3211.83
0,1,82,3631.46
0,1,82,3633.87
0,1,82,3635.81
0,1,82,3637.38
0,1,82,3635.17
0,1,82,3640.23
0,1,82,3639.63
0,1,82,3636.17
0,1,82,3636.37
0,1,82,3636.86
0,1,84,5731.1
0,1,84,5728.1
0,1,84,5726.12
0,1,84,5720.66
0,1,84,5723.77
0,1,84,5722.4
0,1,84,5762.56
0,1,84,5727.92
0,1,84,5766.44
0,1,84,5727.49
0,1,86,7776.81
0,1,86,7755.48
0,1,86,7758.87
0,1,86,7776.27
0,1,86,7813.93
0,1,86,7764.81
0,1,86,7773.38
0,1,86,7809.51
0,1,86,7804.22
0,1,86,7822.57
0,1,88,4039.02
0,1,88,4038.78
0,1,88,4037.63
0,1,88,4036.55
0,1,88,4038.96
0,1,88,4039.18
0,1,88,4037.27
0,1,88,4035.44
0,1,88,4035.25
0,1,88,4037.3
0,1,90,4698.57
0,1,90,4674.76
0,1,90,4691.96
0,1,90,4670.66
0,1,90,4713.67
0,1,90,4672.31
0,1,90,4662.59
0,1,90,4671.03
0,1,90,4669.34
0,1,90,4703.53
0,1,92,3358.36
0,1,92,3362.74
0,1,92,3360.98
0,1,92,3372.49
0,1,92,3392.52
0,1,92,3386.42
0,1,92,3367.3
0,1,92,3390.31
0,1,92,3362.81
0,1,92,3364.02
0,1,94,2078.41
0,1,94,2076.99
0,1,94,2078.16
0,1,94,2077.61
0,1,94,2078.92
0,1,94,2074.89
0,1,94,2077.25
0,1,94,2078.2
0,1,94,2089.99
0,1,94,2073.59
0,1,96,3515.97
0,1,96,3515.58
0,1,96,3509.04
0,1,96,3511.73
0,1,96,3518.24
0,1,96,3516.25
0,1,96,3513.05
0,1,96,3512.98
0,1,96,3513.59
0,1,96,3516.25
0,1,98,4239.57
0,1,98,4237.35
0,1,98,4229.12
0,1,98,4226.21
0,1,98,4225.67
0,1,98,4249.09
0,1,98,4233.74
0,1,98,4235.51
0,1,98,4237.02
0,1,98,4234.42
0,1,100,3621.76
0,1,100,3623.18
0,1,100,3619.2
0,1,100,3625.59
0,1,100,3652.42
0,1,100,3628.25
0,1,100,3622.44
0,1,100,3622.14
0,1,100,3631.05
0,1,100,3621.25
0,1,102,4698.21
0,1,102,4686.47
0,1,102,4682.11
0,1,102,4688.3
0,1,102,4725.92
0,1,102,4690.15
0,1,102,4687.92
0,1,102,4690.97
0,1,102,4677.25
0,1,102,4685.32
0,1,104,4448.35
0,1,104,4442.1
0,1,104,4440.98
0,1,104,4438.24
0,1,104,4439.75
0,1,104,4441.92
0,1,104,4453.09
0,1,104,4445.57
0,1,104,4449.72
0,1,104,4442.92
0,1,106,2433.05
0,1,106,2434.66
0,1,106,2430.53
0,1,106,2434.52
0,1,106,2431.53
0,1,106,2436.1
0,1,106,2433.11
0,1,106,2436.43
0,1,106,2434.82
0,1,106,2430.73
0,1,108,2686.65
0,1,108,2682.4
0,1,108,2681.08
0,1,108,2704.77
0,1,108,2703.2
0,1,108,2682.46
0,1,108,2686.74
0,1,108,2684.87
0,1,108,2681.78
0,1,108,2691.41
0,1,110,3955.88
0,1,110,3958.88
0,1,110,3955.22
0,1,110,3953.69
0,1,110,3956.36
0,1,110,3967.77
0,1,110,3954.99
0,1,110,3951.86
0,1,110,3968.19
0,1,110,3953.99
0,1,112,2767.08
0,1,112,2781.43
0,1,112,2770.19
0,1,112,2763.2
0,1,112,2769.54
0,1,112,2761.81
0,1,112,2768.7
0,1,112,2761.93
0,1,112,2765.56
0,1,112,2761.72
0,1,114,3861.03
0,1,114,3872.88
0,1,114,3853.26
0,1,114,3854.01
0,1,114,3854.1
0,1,114,3851.78
0,1,114,3851.43
0,1,114,3857.59
0,1,114,3859.49
0,1,114,3864.61
0,1,116,3508.04
0,1,116,3511.31
0,1,116,3500.03
0,1,116,3501.62
0,1,116,3505.26
0,1,116,3499.13
0,1,116,3505.45
0,1,116,3494.73
0,1,116,3502.75
0,1,116,3508.83
0,1,118,4838.07
0,1,118,4829.52
0,1,118,4838.63
0,1,118,4820.38
0,1,118,4828.86
0,1,118,4801
0,1,118,4793.25
0,1,118,4793.61
0,1,118,4807.81
0,1,118,4825.85
0,1,120,3068.88
0,1,120,3059.92
0,1,120,3059.49
0,1,120,3057.43
0,1,120,3063.11
0,1,120,3060.07
0,1,120,3061
0,1,120,3060.9
0,1,120,3060.95
0,1,120,3060.59
0,1,122,3377.96
0,1,122,3399.26
0,1,122,3380.39
0,1,122,3378.6
0,1,122,3377.93
0,1,122,3388
0,1,122,3379.52
0,1,122,3384.02
0,1,122,3379.45
0,1,122,3380.78
0,1,124,3199.39
0,1,124,3200.58
0,1,124,3205.03
0,1,124,3200.37
0,1,124,3199.41
0,1,124,3203.2
0,1,124,3202.2
0,1,124,3197.46
0,1,124,3201.74
0,1,124,3198.67
0,1,126,5068.01
0,1,126,5025.72
0,1,126,5027.52
0,1,126,5025.63
0,1,126,5031.37
0,1,126,5029.88
0,1,126,5029.67
0,1,126,5039
0,1,126,5024.23
0,1,126,5019.46
0,1,128,4103.22
0,1,128,4061.14
0,1,128,4052.93
0,1,128,4088.82
0,1,128,4058.41
0,1,128,4055.8
0,1,128,4067.41
0,1,128,4059.11
0,1,128,4065.27
0,1,128,4064.11
0,1,130,3056.85
0,1,130,3040.24
0,1,130,3052.02
0,1,130,3044.5
0,1,130,3041.7
0,1,130,3046.99
0,1,130,3064.32
0,1,130,3043.76
0,1,130,3043.58
0,1,130,3042.47
0,1,132,3871.21
0,1,132,3870.77
0,1,132,3871.6
0,1,132,3877.92
0,1,132,3889.38
0,1,132,3898.68
0,1,132,3866.65
0,1,132,3870.01
0,1,132,3899.54
0,1,132,3891.12
0,1,134,5083.55
0,1,134,5077.46
0,1,134,5075.94
0,1,134,5114.19
0,1,134,5088.65
0,1,134,5082.21
0,1,134,5111.03
0,1,134,5086.8
0,1,134,5091.09
0,1,134,5073.05
0,1,136,6586.28
0,1,136,6571.29
0,1,136,6580.22
0,1,136,6578.53
0,1,136,6579.14
0,1,136,6575.98
0,1,136,6587.05
0,1,136,6588
0,1,136,6577.14
0,1,136,6622
0,1,138,4865.34
0,1,138,4860.46
0,1,138,4855.55
0,1,138,4866.19
0,1,138,4863.95
0,1,138,4889.49
0,1,138,4858.99
0,1,138,4865.53
0,1,138,4886.03
0,1,138,4869.68
0,1,140,4735.65
0,1,140,4700.82
0,1,140,4707.6
0,1,140,4715.1
0,1,140,4706.75
0,1,140,4728.08
0,1,140,4730.9
0,1,140,4691.85
0,1,140,4728.61
0,1,140,4701.1
0,1,142,5077.51
0,1,142,5048.67
0,1,142,5043.05
0,1,142,5034.27
0,1,142,5073.95
0,1,142,5039.31
0,1,142,5039.99
0,1,142,5042.03
0,1,142,5070.9
0,1,142,5040.69
0,1,144,4166.67
0,1,144,4171.04
0,1,144,4159.51
0,1,144,4162.07
0,1,144,4177.2
0,1,144,4168.81
0,1,144,4159.49
0,1,144,4165.5
0,1,144,4204.48
0,1,144,4160.15
0,1,146,4988.9
0,1,146,4978.04
0,1,146,5012.11
0,1,146,4994.87
0,1,146,4973.55
0,1,146,4973.78
0,1,146,4970.01
0,1,146,4966.81
0,1,146,4969.62
0,1,146,4973.14
0,1,148,6374.4
0,1,148,6330.57
0,1,148,6339.91
0,1,148,6341.4
0,1,148,6328.38
0,1,148,6337.36
0,1,148,6333.11
0,1,148,6331.54
0,1,148,6348.3
0,1,148,6334.94
0,1,150,4358.87
0,1,150,4360.43
0,1,150,4350.18
0,1,150,4356.87
0,1,150,4353.48
0,1,150,4357.07
0,1,150,4379.38
0,1,150,4362.54
0,1,150,4363.39
0,1,150,4353.09
0,2,30,125.136
0,2,30,120.742
0,2,30,122.324
0,2,30,122.23
0,2,30,122.54
0,2,30,122.547
0,2,30,124.692
0,2,30,125.606
0,2,30,125.973
0,2,30,125.035
0,2,32,195.443
0,2,32,186.783
0,2,32,190.355
0,2,32,191.611
0,2,32,188.291
0,2,32,189.781
0,2,32,189.151
0,2,32,187.943
0,2,32,189.822
0,2,32,190.281
0,2,34,282.965
0,2,34,285.575
0,2,34,285.992
0,2,34,296.692
0,2,34,297.906
0,2,34,286.48
0,2,34,284.226
0,2,34,280.886
0,2,34,284.312
0,2,34,284.634
0,2,36,363.315
0,2,36,360.086
0,2,36,363.517
0,2,36,362.787
0,2,36,363.564
0,2,36,359.061
0,2,36,362.693
0,2,36,365.918
0,2,36,363.977
0,2,36,362.216
0,2,38,456.002
0,2,38,455.258
0,2,38,457.739
0,2,38,456.384
0,2,38,453.216
0,2,38,453.878
0,2,38,455.654
0,2,38,457.065
0,2,38,452.479
0,2,38,454.837
0,2,40,524.064
0,2,40,526.322
0,2,40,528.913
0,2,40,526.391
0,2,40,525.815
0,2,40,527.293
0,2,40,527.005
0,2,40,524.409
0,2,40,527.46
0,2,40,522.939
0,2,42,722.619
0,2,42,721.739
0,2,42,721.124
0,2,42,720.766
0,2,42,719.811
0,2,42,721.815
0,2,42,724.029
0,2,42,722.025
0,2,42,720.919
0,2,42,718.85
0,2,44,788.343
0,2,44,786.621
0,2,44,784.949
0,2,44,786.261
0,2,44,783.019
0,2,44,787.935
0,2,44,787.638
0,2,44,785.021
0,2,44,785.4
0,2,44,783.587
0,2,46,958.754
0,2,46,959.085
0,2,46,956.955
0,2,46,958.679
0,2,46,957.395
0,2,46,958.428
0,2,46,954.356
0,2,46,956.042
0,2,46,960.228
0,2,46,954.148
0,2,48,923.074
0,2,48,919.144
0,2,48,918.312
0,2,48,918.719
0,2,48,918.245
0,2,48,915.923
0,2,48,918.916
0,2,48,917.807
0,2,48,919.513
0,2,48,914.974
0,2,50,1482.36
0,2,50,1480.16
0,2,50,1476.97
0,2,50,1482.34
0,2,50,1479.81
0,2,50,1480.37
0,2,50,1481.04
0,2,50,1479.54
0,2,50,1481.85
0,2,50,1479.54
0,2,52,1695.26
0,2,52,1690.3
0,2,52,1693.23
0,2,52,1689.74
0,2,52,1692.8
0,2,52,1694.24
0,2,52,1689.1
0,2,52,1693.27
0,2,52,1691.55
0,2,52,1690.84
0,2,54,1213.75
0,2,54,1209.13
0,2,54,1212.92
0,2,54,1211.29
0,2,54,1212.07
0,2,54,1209.09
0,2,54,1212.44
0,2,54,1208.09
0,2,54,1212.95
0,2,54,1213.07
0,2,56,1814.06
0,2,56,1813.1
0,2,56,1810.28
0,2,56,1815.85
0,2,56,1814.07
0,2,56,1813.81
0,2,56,1812.56
0,2,56,1813.67
0,2,56,1813.39
0,2,56,1814.84
0,2,58,1962.55
0,2,58,1963.6
0,2,58,1959.47
0,2,58,1960.68
0,2,58,1962.72
0,2,58,1963.75
0,2,58,1966.33
0,2,58,1964.41
0,2,58,1964.1
0,2,58,1961.67
0,2,60,3513.61
0,2,60,3509.17
0,2,60,3510.89
0,2,60,3512.42
0,2,60,3510.75
0,2,60,3511.51
0,2,60,3512.15
0,2,60,3505.06
0,2,60,3510.27
0,2,60,3506.9
0,2,62,1822.93
0,2,62,1818.31
0,2,62,1819.14
0,2,62,1823.88
0,2,62,1821.96
0,2,62,1819.03
0,2,62,1821.34
0,2,62,1817.07
0,2,62,1816.1
0,2,62,1822.7
0,2,64,2063.96
0,2,64,2063.44
0,2,64,2065.27
0,2,64,2066.15
0,2,64,2064.41
0,2,64,2063.2
0,2,64,2064.14
0,2,64,2064.76
0,2,64,2064.85
0,2,64,2066.05
0,2,66,1640.63
0,2,66,1641.17
0,2,66,1638.11
0,2,66,1640.57
0,2,66,1638.73
0,2,66,1638.53
0,2,66,1642.57
0,2,66,1634.05
0,2,66,1640.31
0,2,66,1641.05
0,2,68,2811.63
0,2,68,2809.72
0,2,68,2809.37
0,2,68,2812.57
0,2,68,2808.74
0,2,68,2808.18
0,2,68,2810.47
0,2,68,2811.39
0,2,68,2809.3
0,2,68,2809.02
0,2,70,1304.31
0,2,70,1304.31
0,2,70,1302.78
0,2,70,1303.82
0,2,70,1302.93
0,2,70,1300.12
0,2,70,1301.5
0,2,70,1304.46
0,2,70,1304.62
0,2,70,1303.37
0,2,72,3127.87
0,2,72,3129.25
0,2,72,3125.38
0,2,72,3124.62
0,2,72,3122.84
0,2,72,3130.77
0,2,72,3130.15
0,2,72,3123.55
0,2,72,3123.79
0,2,72,3127.22
0,2,74,2211.5
0,2,74,2209.23
0,2,74,2211.42
0,2,74,2212.21
0,2,74,2212.05
0,2,74,2213.85
0,2,74,2212.52
0,2,74,2211.21
0,2,74,2214.23
0,2,74,2212.14
0,2,76,2672.6
0,2,76,2668.34
0,2,76,2670.88
0,2,76,2666.86
0,2,76,2667.34
0,2,76,2670.82
0,2,76,2669.53
0,2,76,2671.39
0,2,76,2671.37
0,2,76,2668.76
0,2,78,1827.96
0,2,78,1829.05
0,2,78,1829.99
0,2,78,1826.32
0,2,78,1833.89
0,2,78,1829.52
0,2,78,1830
0,2,78,1830.23
0,2,78,1831.14
0,2,78,1826.97
0,2,80,1419.66
0,2,80,1418.37
0,2,80,1419.78
0,2,80,1418.01
0,2,80,1419.63
0,2,80,1414.29
0,2,80,1417.69
0,2,80,1418.43
0,2,80,1415.79
0,2,80,1418.73
0,2,82,3454.02
0,2,82,3454.02
0,2,82,3453.03
0,2,82,3450.76
0,2,82,3459.36
0,2,82,3456.58
0,2,82,3454.93
0,2,82,3454.13
0,2,82,3457.03
0,2,82,3455.01
0,2,84,3202.72
0,2,84,3200.51
0,2,84,3200.17
0,2,84,3201
0,2,84,3201.59
0,2,84,3202.79
0,2,84,3199.84
0,2,84,3199.87
0,2,84,3201.88
0,2,84,3204.62
0,2,86,3709.45
0,2,86,3718.42
0,2,86,3709.86
0,2,86,3708.41
0,2,86,3708.19
0,2,86,3703.24
0,2,86,3704.24
0,2,86,3705.66
0,2,86,3709.14
0,2,86,3707.6
0,2,88,1652.75
0,2,88,1649.56
0,2,88,1649.26
0,2,88,1650.87
0,2,88,1646.74
0,2,88,1645.92
0,2,88,1647.62
0,2,88,1647.85
0,2,88,1648.41
0,2,88,1645.86
0,2,90,2321.79
0,2,90,2317.5
0,2,90,2316.64
0,2,90,2316.35
0,2,90,2314.95
0,2,90,2314.95
0,2,90,2317.89
0,2,90,2316.3
0,2,90,2319.59
0,2,90,2318.88
0,2,92,5025.04
0,2,92,5023.63
0,2,92,5011.44
0,2,92,5023.2
0,2,92,5020.71
0,2,92,5018.24
0,2,92,5020.32
0,2,92,5020.8
0,2,92,5019.53
0,2,92,5019.26
0,2,94,3070.59
0,2,94,3072.71
0,2,94,3072.7
0,2,94,3072.29
0,2,94,3074.5
0,2,94,3076.73
0,2,94,3070.45
0,2,94,3070.6
0,2,94,3072.16
0,2,94,3071.18
0,2,96,3528.5
0,2,96,3523.2
0,2,96,3522.37
0,2,96,3524.59
0,2,96,3522.63
0,2,96,3526.12
0,2,96,3548.82
0,2,96,3523.04
0,2,96,3523.78
0,2,96,3525.06
0,2,98,5440.38
0,2,98,5443.79
0,2,98,5433.49
0,2,98,5437.86
0,2,98,5436.74
0,2,98,5433.31
0,2,98,5438.87
0,2,98,5436.92
0,2,98,5436.84
0,2,98,5440.08
0,2,100,2796.86
0,2,100,2798.72
0,2,100,2804.89
0,2,100,2800.71
0,2,100,2802.65
0,2,100,2799.64
0,2,100,2800.14
0,2,100,2801.15
0,2,100,2799.99
0,2,100,2806.65
0,2,102,2463.18
0,2,102,2458.44
0,2,102,2461.64
0,2,102,2455.68
0,2,102,2455.42
0,2,102,2466.03
0,2,102,2460.98
0,2,102,2459.15
0,2,102,2463.02
0,2,102,2463.91
0,2,104,2276.3
0,2,104,2271.79
0,2,104,2269.63
0,2,104,2272.65
0,2,104,2268.83
0,2,104,2272.56
0,2,104,2271.36
0,2,104,2273.1
0,2,104,2275.51
0,2,104,2272.38
0,2,106,2134.21
0,2,106,2130.77
0,2,106,2139.92
0,2,106,2137.2
0,2,106,2132.76
0,2,106,2133.05
0,2,106,2136.16
0,2,106,2130.91
0,2,106,2139.62
0,2,106,2136.77
0,2,108,3940.35
0,2,108,3944.35
0,2,108,3942.62
0,2,108,3941.07
0,2,108,3930.94
0,2,108,3939.44
0,2,108,3947.42
0,2,108,3945.45
0,2,108,3939.42
0,2,108,3936.43
0,2,110,3209.9
0,2,110,3200.88
0,2,110,3200.08
0,2,110,3204.88
0,2,110,3205.5
0,2,110,3204.11
0,2,110,3204.03
0,2,110,3202.75
0,2,110,3197.36
0,2,110,3194.27
0,2,112,4147.01
0,2,112,4139.31
0,2,112,4135.52
0,2,112,4138.75
0,2,112,4144.31
0,2,112,4144
0,2,112,4145.38
0,2,112,4154.82
0,2,112,4148.97
0,2,112,4146.29
0,2,114,4097.29
0,2,114,4097.94
0,2,114,4095.45
0,2,114,4093.02
0,2,114,4085.88
0,2,114,4095.52
0,2,114,4085.35
0,2,114,4087.7
0,2,114,4089.85
0,2,114,4089.62
0,2,116,3690.52
0,2,116,3680.5
0,2,116,3685.78
0,2,116,3687.13
0,2,116,3687.84
0,2,116,3685.97
0,2,116,3688.69
0,2,116,3683.48
0,2,116,3682.95
0,2,116,3690.01
0,2,118,2770.43
0,2,118,2763.62
0,2,118,2762.27
0,2,118,2764.77
0,2,118,2766.26
0,2,118,2766.68
0,2,118,2766.15
0,2,118,2767.73
0,2,118,2763.65
0,2,118,2757.71
0,2,120,4094.25
0,2,120,4095.55
0,2,120,4095.91
0,2,120,4100.58
0,2,120,4102.48
0,2,120,4100.25
0,2,120,4094.61
0,2,120,4113.04
0,2,120,4104.99
0,2,120,4103.23
0,2,122,3625.04
0,2,122,3613.96
0,2,122,3612.78
0,2,122,3616.98
0,2,122,3614.83
0,2,122,3617.08
0,2,122,3612.34
0,2,122,3617.92
0,2,122,3617.46
0,2,122,3619.93
0,2,124,3569.77
0,2,124,3571.99
0,2,124,3573.29
0,2,124,3575.06
0,2,124,3582.35
0,2,124,3575.45
0,2,124,3577.04
0,2,124,3574.1
0,2,124,3579.18
0,2,124,3574.78
0,2,126,3399.62
0,2,126,3390.82
0,2,126,3394.3
0,2,126,3385.04
0,2,126,3384.23
0,2,126,3389.82
0,2,126,3396.19
0,2,126,3397.27
0,2,126,3390.76
0,2,126,3392.78
0,2,128,5560.47
0,2,128,5545.37
0,2,128,5546.58
0,2,128,5543.15
0,2,128,5544.74
0,2,128,5557.75
0,2,128,5548.51
0,2,128,5547.18
0,2,128,5550.15
0,2,128,5553.17
0,2,130,4769
0,2,130,4772.85
0,2,130,4770.47
0,2,130,4767.41
0,2,130,4763.79
0,2,130,4778.88
0,2,130,4760.17
0,2,130,4765.18
0,2,130,4771.76
0,2,130,4763.58
0,2,132,5750.41
0,2,132,5759.33
0,2,132,5746
0,2,132,5745.92
0,2,132,5750.12
0,2,132,5753.89
0,2,132,5754.6
0,2,132,5767.31
0,2,132,5745.02
0,2,132,5748.45
0,2,134,4924.68
0,2,134,4920.26
0,2,134,4920.89
0,2,134,4920.18
0,2,134,4914.65
0,2,134,4918.37
0,2,134,4923.61
0,2,134,4924.61
0,2,134,4916.12
0,2,134,4914.63
0,2,136,3732.89
0,2,136,3749.18
0,2,136,3735.74
0,2,136,3737.17
0,2,136,3737.9
0,2,136,3736.32
0,2,136,3729.16
0,2,136,3732.23
0,2,136,3732.17
0,2,136,3733.84
0,2,138,5115.89
0,2,138,5111.77
0,2,138,5115.35
0,2,138,5128.92
0,2,138,5124.4
0,2,138,5119
0,2,138,5106.99
0,2,138,5114.6
0,2,138,5127.35
0,2,138,5121.08
0,2,140,4433.1
0,2,140,4441.59
0,2,140,4429.83
0,2,140,4425.52
0,2,140,4422.03
0,2,140,4440.5
0,2,140,4433.87
0,2,140,4423.84
0,2,140,4424.19
0,2,140,4440.08
0,2,142,4397.45
0,2,142,4406.08
0,2,142,4398.99
0,2,142,4400.57
0,2,142,4409.02
0,2,142,4404.68
0,2,142,4400.42
0,2,142,4406.19
0,2,142,4408.17
0,2,142,4403.36
0,2,144,8655.68
0,2,144,8657.99
0,2,144,8664.8
0,2,144,8646.57
0,2,144,8651.16
0,2,144,8656.21
0,2,144,8659.36
0,2,144,8639.22
0,2,144,8658.27
0,2,144,8636.29
0,2,146,5590.36
0,2,146,5585.07
0,2,146,5595.78
0,2,146,5580.53
0,2,146,5584.02
0,2,146,5587.8
0,2,146,5593.02
0,2,146,5578.08
0,2,146,5604.81
0,2,146,5596.53
0,2,148,5237.45
0,2,148,5233.66
0,2,148,5240.31
0,2,148,5235.82
0,2,148,5239.09
0,2,148,5239.96
0,2,148,5247.65
0,2,148,5234.72
0,2,148,5245.61
0,2,148,5241.1
0,2,150,6041.61
0,2,150,6027.69
0,2,150,6043.17
0,2,150,6039.03
0,2,150,6040.49
0,2,150,6032.54
0,2,150,6018.65
0,2,150,6027.47
0,2,150,6050.97
0,2,150,6027.85
0,3,30,136.798
0,3,30,134.931
0,3,30,135.131
0,3,30,139.37
0,3,30,134.822
0,3,30,135.477
0,3,30,140.396
0,3,30,139.873
0,3,30,141.857
0,3,30,136.385
0,3,32,193.293
0,3,32,193.381
0,3,32,192.576
0,3,32,190.073
0,3,32,189.421
0,3,32,192.955
0,3,32,191.764
0,3,32,192.458
0,3,32,191.189
0,3,32,192.802
0,3,34,271.965
0,3,34,269.297
0,3,34,271.487
0,3,34,268.519
0,3,34,274.627
0,3,34,269.888
0,3,34,273.154
0,3,34,271.289
0,3,34,269.727
0,3,34,272.629
0,3,36,332.736
0,3,36,333.794
0,3,36,343.063
0,3,36,350.433
0,3,36,350.873
0,3,36,351.564
0,3,36,360.709
0,3,36,351.179
0,3,36,340.532
0,3,36,330.859
0,3,38,493.927
0,3,38,494.688
0,3,38,492.891
0,3,38,490.497
0,3,38,490.178
0,3,38,493.217
0,3,38,495.059
0,3,38,493.858
0,3,38,494.314
0,3,38,491.059
0,3,40,583.941
0,3,40,583.517
0,3,40,587.399
0,3,40,579.296
0,3,40,582.673
0,3,40,584.106
0,3,40,583.168
0,3,40,581.828
0,3,40,583.898
0,3,40,584.013
0,3,42,755.126
0,3,42,753.401
0,3,42,752.556
0,3,42,754.315
0,3,42,754.268
0,3,42,755.647
0,3,42,753.316
0,3,42,755.547
0,3,42,755.344
0,3,42,757.265
0,3,44,842.504
0,3,44,842.249
0,3,44,841.414
0,3,44,843.76
0,3,44,840.057
0,3,44,841.528
0,3,44,838.8
0,3,44,843.59
0,3,44,844.545
0,3,44,839.331
0,3,46,973.048
0,3,46,972.951
0,3,46,970.781
0,3,46,972.324
0,3,46,971.829
0,3,46,972.465
0,3,46,970.899
0,3,46,973.422
0,3,46,971.838
0,3,46,972.499
0,3,48,1237.12
0,3,48,1236.4
0,3,48,1233.91
0,3,48,1238.49
0,3,48,1236.39
0,3,48,1236.84
0,3,48,1235.26
0,3,48,1232.32
0,3,48,1233.57
0,3,48,1236.13
0,3,50,1456.9
0,3,50,1450.29
0,3,50,1459.57
0,3,50,1453.82
0,3,50,1456.48
0,3,50,1455.53
0,3,50,1454.61
0,3,50,1457.76
0,3,50,1453.41
0,3,50,1452.08
0,3,52,1923.74
0,3,52,1924.87
0,3,52,1920.21
0,3,52,1919.84
0,3,52,1923.13
0,3,52,1920.63
0,3,52,1922.99
0,3,52,1919.05
0,3,52,1923.82
0,3,52,1921.18
0,3,54,1429.87
0,3,54,1427.19
0,3,54,1426.2
0,3,54,1427.07
0,3,54,1431.32
0,3,54,1430.66
0,3,54,1427.01
0,3,54,1431.02
0,3,54,1433.16
0,3,54,1428.82
0,3,56,1295.66
0,3,56,1293.85
0,3,56,1291.71
0,3,56,1294.87
0,3,56,1294.18
0,3,56,1296
0,3,56,1293.79
0,3,56,1292.73
0,3,56,1291.33
0,3,56,1293.05
0,3,58,1296.05
0,3,58,1296.17
0,3,58,1298
0,3,58,1297.28
0,3,58,1297.65
0,3,58,1294
0,3,58,1294.9
0,3,58,1299.66
0,3,58,1297.81
0,3,58,1295.93
0,3,60,2313.46
0,3,60,2308.51
0,3,60,2309.05
0,3,60,2312.83
0,3,60,2311.24
0,3,60,2310.7
0,3,60,2313.8
0,3,60,2307.55
0,3,60,2309.01
0,3,60,2313.77
0,3,62,2586.45
0,3,62,2588.09
0,3,62,2589.59
0,3,62,2586.72
0,3,62,2584.5
0,3,62,2584.56
0,3,62,2584.69
0,3,62,2589.24
0,3,62,2585.64
0,3,62,2589.57
0,3,64,2884.5
0,3,64,2885.85
0,3,64,2885.25
0,3,64,2884.88
0,3,64,2885.17
0,3,64,2884.6
0,3,64,2884.33
0,3,64,2880.57
0,3,64,2881.63
0,3,64,2884.55
0,3,66,3077.34
0,3,66,3077.1
0,3,66,3078.74
0,3,66,3077.88
0,3,66,3079.82
0,3,66,3082.73
0,3,66,3080.3
0,3,66,3081.65
0,3,66,3077.85
0,3,66,3079.83
0,3,68,1301.28
0,3,68,1300.94
0,3,68,1301.46
0,3,68,1300.73
0,3,68,1296.82
0,3,68,1297.87
0,3,68,1301.84
0,3,68,1296.65
0,3,68,1299.11
0,3,68,1298.32
0,3,70,2373.18
0,3,70,2377.03
0,3,70,2375.09
0,3,70,2374.67
0,3,70,2372.97
0,3,70,2376.93
0,3,70,2375.3
0,3,70,2375.07
0,3,70,2375.19
0,3,70,2376.62
0,3,72,4107.74
0,3,72,4100.9
0,3,72,4101.17
0,3,72,4100.01
0,3,72,4102.17
0,3,72,4102.87
0,3,72,4097.47
0,3,72,4101.45
0,3,72,4099.35
0,3,72,4099.87
0,3,74,2404.68
0,3,74,2401.57
0,3,74,2404.86
0,3,74,2403.4
0,3,74,2405.14
0,3,74,2405.49
0,3,74,2404.5
0,3,74,2403.86
0,3,74,2400.59
0,3,74,2403.76
0,3,76,2370.83
0,3,76,2366.14
0,3,76,2371.97
0,3,76,2366.97
0,3,76,2371
0,3,76,2372.14
0,3,76,2370.54
0,3,76,2373.49
0,3,76,2369.42
0,3,76,2372.18
0,3,78,3572.21
0,3,78,3577.48
0,3,78,3570.73
0,3,78,3576.85
0,3,78,3575.65
0,3,78,3572.77
0,3,78,3571.25
0,3,78,3575.58
0,3,78,3573.95
0,3,78,3574.99
0,3,80,2531.12
0,3,80,2526.98
0,3,80,2528.36
0,3,80,2529.4
0,3,80,2529.11
0,3,80,2525.54
0,3,80,2527.71
0,3,80,2532.14
0,3,80,2525.17
0,3,80,2530.73
0,3,82,2146.56
0,3,82,2148.74
0,3,82,2149.91
0,3,82,2148.41
0,3,82,2147.16
0,3,82,2149.87
0,3,82,2149.76
0,3,82,2150.04
0,3,82,2146.82
0,3,82,2148.99
0,3,84,2399.49
0,3,84,2397.57
0,3,84,2391.51
0,3,84,2395.38
0,3,84,2398.09
0,3,84,2397
0,3,84,2394.19
0,3,84,2394.42
0,3,84,2392.91
0,3,84,2391.33
0,3,86,2246.94
0,3,86,2250.5
0,3,86,2242.04
0,3,86,2253.86
0,3,86,2242.66
0,3,86,2249.47
0,3,86,2245.71
0,3,86,2246.84
0,3,86,2247.66
0,3,86,2244.32
0,3,88,2984.19
0,3,88,2984.04
0,3,88,2981.03
0,3,88,2982.54
0,3,88,2986.61
0,3,88,2988.3
0,3,88,2989.1
0,3,88,2987.47
0,3,88,2992.52
0,3,88,2981.79
0,3,90,2257.7
0,3,90,2254.77
0,3,90,2255.93
0,3,90,2252.32
0,3,90,2253.66
0,3,90,2253.1
0,3,90,2252.73
0,3,90,2255.09
0,3,90,2252.9
0,3,90,2251.05
0,3,92,2697.32
0,3,92,2690.84
0,3,92,2696.49
0,3,92,2692.57
0,3,92,2695.61
0,3,92,2691.99
0,3,92,2698.46
0,3,92,2694.31
0,3,92,2694.93
0,3,92,2694.27
0,3,94,3311.44
0,3,94,3308.47
0,3,94,3304.76
0,3,94,3304.64
0,3,94,3303.89
0,3,94,3300.79
0,3,94,3304.26
0,3,94,3303.56
0,3,94,3302.89
0,3,94,3305.99
0,3,96,2932.31
0,3,96,2931.68
0,3,96,2926.22
0,3,96,2926.26
0,3,96,2932.64
0,3,96,2928.73
0,3,96,2926.25
0,3,96,2926.22
0,3,96,2929.78
0,3,96,2928.08
0,3,98,2340.47
0,3,98,2335.87
0,3,98,2337.46
0,3,98,2328.31
0,3,98,2339.45
0,3,98,2329.3
0,3,98,2331.67
0,3,98,2332.21
0,3,98,2456.58
0,3,98,2524.57
0,3,100,3365.61
0,3,100,3362.57
0,3,100,3365.03
0,3,100,3364.45
0,3,100,3366.7
0,3,100,3362.05
0,3,100,3361
0,3,100,3365.43
0,3,100,3366.38
0,3,100,3529.53
0,3,102,4251.97
0,3,102,4087.54
0,3,102,4089.32
0,3,102,4314.48
0,3,102,4187.1
0,3,102,4084.8
0,3,102,4091.01
0,3,102,4087.78
0,3,102,4089.87
0,3,102,4389.07
0,3,104,3669.15
0,3,104,3653.82
0,3,104,3652.15
0,3,104,3649.87
0,3,104,3830.52
0,3,104,3790.81
0,3,104,3646.01
0,3,104,3762.4
0,3,104,3860.12
0,3,104,3738.91
0,3,106,5304.94
0,3,106,5075.84
0,3,106,5066.31
0,3,106,5063.45
0,3,106,5302.89
0,3,106,5156.26
0,3,106,5062.7
0,3,106,5265.27
0,3,106,5194.31
0,3,106,5065.28
0,3,108,3294.97
0,3,108,3289.77
0,3,108,3519.35
0,3,108,3386.79
0,3,108,3290.53
0,3,108,3291.15
0,3,108,3293.35
0,3,108,3580.94
0,3,108,3316.59
0,3,108,3491.98
0,3,110,3865.36
0,3,110,3916.53
0,3,110,3879.27
0,3,110,3914.44
0,3,110,3893.29
0,3,110,3895.99
0,3,110,3910.76
0,3,110,3738.67
0,3,110,3737.74
0,3,110,3836.27
0,3,112,2932.68
0,3,112,2702.76
0,3,112,2825.32
0,3,112,2901.67
0,3,112,2699.23
0,3,112,2865.97
0,3,112,2853.82
0,3,112,2699.82
0,3,112,2901.87
0,3,112,2816.37
0,3,114,3567.57
0,3,114,3738.74
0,3,114,3501.69
0,3,114,3790.42
0,3,114,3480.11
0,3,114,3748.88
0,3,114,3547.62
0,3,114,3689.11
0,3,114,3606.37
0,3,114,3493.92
0,3,116,2712.77
0,3,116,2916.81
0,3,116,2738.71
0,3,116,2679.27
0,3,116,2678.28
0,3,116,2861.88
0,3,116,2827.88
0,3,116,2679.14
0,3,116,2894.43
0,3,116,2790.53
0,3,118,3969.64
0,3,118,4693.87
0,3,118,4480.08
0,3,118,4073.06
0,3,118,3956.65
0,3,118,4074.35
0,3,118,3954.38
0,3,118,4082.85
0,3,118,3944.58
0,3,118,4077.29
0,3,120,5074.28
0,3,120,5304.67
0,3,120,5182.76
0,3,120,5111.42
0,3,120,5304.96
0,3,120,4984.21
0,3,120,5222.84
0,3,120,5069.88
0,3,120,5297.64
0,3,120,5199.52
0,3,122,3975.71
0,3,122,4080.07
0,3,122,3970.76
0,3,122,4091.1
0,3,122,3958.68
0,3,122,3865.72
0,3,122,4085.57
0,3,122,3971.16
0,3,122,4088.68
0,3,122,3968.56
0,3,124,4271.71
0,3,124,4099.69
0,3,124,4301.61
0,3,124,4066.52
0,3,124,4332.96
0,3,124,4027.35
0,3,124,4346.77
0,3,124,4045.97
0,3,124,4318.07
0,3,124,4017.5
0,3,126,3157.84
0,3,126,3416.42
0,3,126,3214.06
0,3,126,3296.42
0,3,126,3336.73
0,3,126,3172.71
0,3,126,3422.96
0,3,126,4377.51
0,3,126,3887.6
0,3,126,3156.28
0,3,128,4816.38
0,3,128,6054.01
0,3,128,5103.36
0,3,128,5349.89
0,3,128,4764.62
0,3,128,4644.9
0,3,128,4658.9
0,3,128,4482.71
0,3,128,4802.21
0,3,128,4481.48
0,3,130,7877.23
0,3,130,7878.01
0,3,130,7880.15
0,3,130,7883.74
0,3,130,7559.43
0,3,130,7881.4
0,3,130,7814.73
0,3,130,7628.09
0,3,130,7549.31
0,3,130,7885.93
0,3,132,7346.26
0,3,132,8117.21
0,3,132,6743.37
0,3,132,6797.98
0,3,132,6849.22
0,3,132,6843.32
0,3,132,6836.32
0,3,132,6752.55
0,3,132,6740.96
0,3,132,6757.16
0,3,134,4444.81
0,3,134,4195.07
0,3,134,4389.29
0,3,134,4254.79
0,3,134,4333.53
0,3,134,4302.55
0,3,134,4283.51
0,3,134,4354.23
0,3,134,4229.43
0,3,134,4134.38
0,3,136,4729.16
0,3,136,4455.09
0,3,136,4699.33
0,3,136,4551.25
0,3,136,4609.22
0,3,136,4660.04
0,3,136,4512.91
0,3,136,4416.28
0,3,136,4742.68
0,3,136,4413.28
0,3,138,5832.42
0,3,138,5760.59
0,3,138,5875.5
0,3,138,5926.21
0,3,138,5598.37
0,3,138,5913.22
0,3,138,5738.63
0,3,138,7120.95
0,3,138,6452.74
0,3,138,5748.13
0,3,140,3670.61
0,3,140,3457.2
0,3,140,3732.59
0,3,140,3450.41
0,3,140,3432.21
0,3,140,3629.8
0,3,140,3546.73
0,3,140,3567.81
0,3,140,3619.91
0,3,140,3506.6
0,3,142,10247.7
0,3,142,8737.31
0,3,142,8545.4
0,3,142,8250.9
0,3,142,9022.76
0,3,142,8935.76
0,3,142,8469.8
0,3,142,8597.59
0,3,142,8272.89
0,3,142,8601.66
0,3,144,6391.93
0,3,144,6424.9
0,3,144,6395.84
0,3,144,6280.63
0,3,144,6240.65
0,3,144,6300.05
0,3,144,6187.63
0,3,144,6349.3
0,3,144,6266.84
0,3,144,6299.84
0,3,146,4834.36
0,3,146,4595.43
0,3,146,4732.52
0,3,146,4494.39
0,3,146,4762.09
0,3,146,4560.43
0,3,146,4829.71
0,3,146,4599.47
0,3,146,4728.88
0,3,146,4521.26
0,3,148,8145.34
0,3,148,8169.08
0,3,148,8163.68
0,3,148,8169.53
0,3,148,9456.42
0,3,148,8811.55
0,3,148,7858.04
0,3,148,8155.61
0,3,148,7954.1
0,3,148,8175.53
0,3,150,9138.75
0,3,150,9138.82
0,3,150,9055.55
0,3,150,9054.03
0,3,150,9035.79
0,3,150,10513.4
0,3,150,9513.84
0,3,150,9045.22
0,3,150,9141.12
0,3,150,9125.38
0,4,30,117.108
0,4,30,113.276
0,4,30,113.806
0,4,30,115.096
0,4,30,115.128
0,4,30,110.408
0,4,30,110.846
0,4,30,112.977
0,4,30,113.826
0,4,30,110.531
0,4,32,178.115
0,4,32,178.025
0,4,32,178.357
0,4,32,174.422
0,4,32,174.451
0,4,32,177.635
0,4,32,177.324
0,4,32,180.001
0,4,32,174.613
0,4,32,177.068
0,4,34,270.592
0,4,34,270.502
0,4,34,265.685
0,4,34,270.069
0,4,34,268.777
0,4,34,268.79
0,4,34,265.508
0,4,34,268.613
0,4,34,268.774
0,4,34,267.114
0,4,36,393.464
0,4,36,392.444
0,4,36,387.616
0,4,36,386.913
0,4,36,389.961
0,4,36,391.469
0,4,36,390.075
0,4,36,387.762
0,4,36,388.001
0,4,36,387.97
0,4,38,386.531
0,4,38,384.329
0,4,38,389.436
0,4,38,388.419
0,4,38,384.336
0,4,38,387.235
0,4,38,388.024
0,4,38,387.13
0,4,38,387.319
0,4,38,386.355
0,4,40,581.948
0,4,40,584.376
0,4,40,585.102
0,4,40,580.015
0,4,40,582.275
0,4,40,583.871
0,4,40,582.975
0,4,40,580.199
0,4,40,580.676
0,4,40,580.613
0,4,42,759.575
0,4,42,758.54
0,4,42,759.792
0,4,42,759.407
0,4,42,758.541
0,4,42,756.239
0,4,42,758.006
0,4,42,760.358
0,4,42,759.126
0,4,42,757.881
0,4,44,819.025
0,4,44,820.53
0,4,44,819.509
0,4,44,819.983
0,4,44,817.456
0,4,44,820.95
0,4,44,820.255
0,4,44,821.477
0,4,44,819.757
0,4,44,824.068
0,4,46,1127.1
0,4,46,1125.57
0,4,46,1123.3
0,4,46,1130.41
0,4,46,1126.38
0,4,46,1125.82
0,4,46,1128.66
0,4,46,1125.82
0,4,46,1123.58
0,4,46,1128.59
0,4,48,1240.16
0,4,48,1238.32
0,4,48,1237.82
0,4,48,1237.13
0,4,48,1236.04
0,4,48,1238.1
0,4,48,1234.17
0,4,48,1239.01
0,4,48,1239.24
0,4,48,1236.6
0,4,50,1100.98
0,4,50,1099.25
0,4,50,1098.24
0,4,50,1098.32
0,4,50,1093.53
0,4,50,1094.62
0,4,50,1099.46
0,4,50,1097.86
0,4,50,1097.55
0,4,50,1095.14
0,4,52,1667.34
0,4,52,1667.51
0,4,52,1671.14
0,4,52,1667.77
0,4,52,1670.65
0,4,52,1668.22
0,4,52,1665.52
0,4,52,1669.02
0,4,52,1666.36
0,4,52,1667.14
0,4,54,1639.69
0,4,54,1638.97
0,4,54,1639.81
0,4,54,1638.83
0,4,54,1640.32
0,4,54,1636.82
0,4,54,1636.14
0,4,54,1635.61
0,4,54,1640.16
0,4,54,1640.75
0,4,56,1899.85
0,4,56,1901.42
0,4,56,1898.65
0,4,56,1894.98
0,4,56,1901.66
0,4,56,1896.86
0,4,56,1898.71
0,4,56,1898.59
0,4,56,1892.8
0,4,56,1896.23
0,4,58,2175.46
0,4,58,2175.77
0,4,58,2172.29
0,4,58,2172.62
0,4,58,2171.29
0,4,58,2175.18
0,4,58,2175.91
0,4,58,2173.05
0,4,58,2175.18
0,4,58,2174.14
0,4,60,1560.95
0,4,60,1561.5
0,4,60,1561.63
0,4,60,1561.68
0,4,60,1563.4
0,4,60,1559.84
0,4,60,1562.37
0,4,60,1564.33
0,4,60,1560.62
0,4,60,1559.22
0,4,62,2781.03
0,4,62,2779.45
0,4,62,2780.94
0,4,62,2780.4
0,4,62,2780.78
0,4,62,2782.26
0,4,62,2783.19
0,4,62,2785.53
0,4,62,2779.77
0,4,62,2778.55
0,4,64,1107.32
0,4,64,1104.79
0,4,64,1106.4
0,4,64,1101.24
0,4,64,1105.11
0,4,64,1103.69
0,4,64,1106.03
0,4,64,1105.83
0,4,64,1105.24
0,4,64,1105.84
0,4,66,1846.19
0,4,66,1842.33
0,4,66,1844.69
0,4,66,1844.69
0,4,66,1845.99
0,4,66,1847.57
0,4,66,1842.33
0,4,66,1843.8
0,4,66,1844.05
0,4,66,1846.71
0,4,68,2138.98
0,4,68,2137.41
0,4,68,2136.81
0,4,68,2134.41
0,4,68,2136.19
0,4,68,2138.43
0,4,68,2137.59
0,4,68,2136.68
0,4,68,2139.08
0,4,68,2137.61
0,4,70,2947.54
0,4,70,2946.84
0,4,70,2940.96
0,4,70,2943.68
0,4,70,2941.39
0,4,70,2946.51
0,4,70,2947.13
0,4,70,2944.71
0,4,70,2944.3
0,4,70,2942.57
0,4,72,3733.11
0,4,72,3736.1
0,4,72,3733.94
0,4,72,3730.92
0,4,72,3737.27
0,4,72,3733.27
0,4,72,3730.52
0,4,72,3731.31
0,4,72,3726.88
0,4,72,3728.17
0,4,74,2240.54
0,4,74,2239.73
0,4,74,2238.23
0,4,74,2237.48
0,4,74,2242.47
0,4,74,2234.9
0,4,74,2241.05
0,4,74,2241.73
0,4,74,2237
0,4,74,2242.46
0,4,76,2388.14
0,4,76,2381.95
0,4,76,2385.77
0,4,76,2387.24
0,4,76,2387.17
0,4,76,2386.35
0,4,76,2382.76
0,4,76,2385.76
0,4,76,2382.19
0,4,76,2385.25
0,4,78,2600.69
0,4,78,2598.21
0,4,78,2592.47
0,4,78,2594.01
0,4,78,2596.14
0,4,78,2596.12
0,4,78,2594.72
0,4,78,2595.68
0,4,78,2598.33
0,4,78,2599.23
0,4,80,3009.93
0,4,80,3010.74
0,4,80,3007.58
0,4,80,3010.31
0,4,80,3007.63
0,4,80,3012.07
0,4,80,3012.58
0,4,80,3010.79
0,4,80,3011.31
0,4,80,3014.85
0,4,82,2221.66
0,4,82,2213.12
0,4,82,2212.94
0,4,82,2216.97
0,4,82,2213.34
0,4,82,2216.94
0,4,82,2213.77
0,4,82,2217.11
0,4,82,2217.29
0,4,82,2217.42
0,4,84,2779.17
0,4,84,2780.02
0,4,84,2775.09
0,4,84,2777.19
0,4,84,2774.34
0,4,84,2778
0,4,84,2778
0,4,84,2774.79
0,4,84,2777.08
0,4,84,2782.73
0,4,86,2515.35
0,4,86,2515.28
0,4,86,2507.9
0,4,86,2516.44
0,4,86,2516.6
0,4,86,2513.88
0,4,86,2514.98
0,4,86,2515.36
0,4,86,2515.12
0,4,86,2517.54
0,4,88,2391.96
0,4,88,2388.3
0,4,88,2392.64
0,4,88,2390.44
0,4,88,2391.47
0,4,88,2384.93
0,4,88,2394.05
0,4,88,2391.47
0,4,88,2388.89
0,4,88,2392.85
0,4,90,1546.68
0,4,90,1547.89
0,4,90,1549.46
0,4,90,1551.33
0,4,90,1545.36
0,4,90,1543.53
0,4,90,1544.05
0,4,90,1547.71
0,4,90,1545.54
0,4,90,1547.15
0,4,92,3526.98
0,4,92,3520.26
0,4,92,3520.77
0,4,92,3516.46
0,4,92,3519
0,4,92,3517.83
0,4,92,3518.19
0,4,92,3519.03
0,4,92,3514.18
0,4,92,3511.7
0,4,94,3828.77
0,4,94,3824.43
0,4,94,3826.67
0,4,94,3827.5
0,4,94,3825.73
0,4,94,3830.17
0,4,94,3826.49
0,4,94,3829.96
0,4,94,3825.69
0,4,94,3827.1
0,4,96,2479.79
0,4,96,2481.51
0,4,96,2482.05
0,4,96,2480.42
0,4,96,2483.09
0,4,96,2482.13
0,4,96,2480.85
0,4,96,2475.45
0,4,96,2481.26
0,4,96,2482.1
0,4,98,3194.06
0,4,98,3194.08
0,4,98,3195.16
0,4,98,3190.02
0,4,98,3199.28
0,4,98,3197.41
0,4,98,3199.27
0,4,98,3195.88
0,4,98,3192.57
0,4,98,3196.4
0,4,100,2461.08
0,4,100,2462.26
0,4,100,2461.27
0,4,100,2456.34
0,4,100,2459.82
0,4,100,2461.37
0,4,100,2463.54
0,4,100,2459.9
0,4,100,2460.17
0,4,100,2464.09
0,4,102,4792.23
0,4,102,4790.84
0,4,102,4803.28
0,4,102,4799.07
0,4,102,4801.68
0,4,102,4793.87
0,4,102,4797.06
0,4,102,4792.55
0,4,102,4798.03
0,4,102,4788.63
0,4,104,4926.1
0,4,104,4924.91
0,4,104,4926.18
0,4,104,4921.84
0,4,104,4936
0,4,104,4926.7
0,4,104,4922.15
0,4,104,4926.71
0,4,104,4932.24
0,4,104,4925.09
0,4,106,3501.2
0,4,106,3503.7
0,4,106,3497.22
0,4,106,3493.77
0,4,106,3502.86
0,4,106,3500.35
0,4,106,3499.85
0,4,106,3505.21
0,4,106,3497.37
0,4,106,3505.64
0,4,108,6579.1
0,4,108,6563.6
0,4,108,6560.54
0,4,108,6570.63
0,4,108,6552.87
0,4,108,6560.34
0,4,108,6564.95
0,4,108,6565.5
0,4,108,6565.28
0,4,108,6556.46
0,4,110,2902.08
0,4,110,2927.4
0,4,110,2896.62
0,4,110,2898.86
0,4,110,2897.83
0,4,110,2925.88
0,4,110,2902.86
0,4,110,2897.17
0,4,110,2901.22
0,4,110,2905.83
0,4,112,4521.67
0,4,112,4517.18
0,4,112,4515.22
0,4,112,4521.39
0,4,112,4520.79
0,4,112,4519.11
0,4,112,4521.93
0,4,112,4518.44
0,4,112,4510.77
0,4,112,4523.75
0,4,114,4054.53
0,4,114,4057.57
0,4,114,4056.82
0,4,114,4061.9
0,4,114,4058.11
0,4,114,4062.99
0,4,114,4056.43
0,4,114,4055.54
0,4,114,4059.37
0,4,114,4057.71
0,4,116,4105.98
0,4,116,4089.43
0,4,116,4095.02
0,4,116,4092.35
0,4,116,4094.46
0,4,116,4096.18
0,4,116,4089.99
0,4,116,4089.91
0,4,116,4093.51
0,4,116,4097.66
0,4,118,3720.77
0,4,118,3716.67
0,4,118,3716.81
0,4,118,3711.85
0,4,118,3722.94
0,4,118,3712.49
0,4,118,3718.59
0,4,118,3722.13
0,4,118,3721.94
0,4,118,3713.94
0,4,120,3067.42
0,4,120,3051.28
0,4,120,3061.22
0,4,120,3052.76
0,4,120,3051.75
0,4,120,3060.1
0,4,120,3055.13
0,4,120,3056.82
0,4,120,3066.48
0,4,120,3060.15
0,4,122,5681.47
0,4,122,5682.22
0,4,122,5681.13
0,4,122,5691.21
0,4,122,5675.45
0,4,122,5681.75
0,4,122,5668.36
0,4,122,5668.11
0,4,122,5677.71
0,4,122,5672.85
0,4,124,3470.18
0,4,124,3468.31
0,4,124,3461.17
0,4,124,3468.63
0,4,124,3465.2
0,4,124,3466.22
0,4,124,3467.68
0,4,124,3464.7
0,4,124,3452.68
0,4,124,3466.93
0,4,126,4809.9
0,4,126,4809.58
0,4,126,4809.47
0,4,126,4811.61
0,4,126,4798.41
0,4,126,4807.17
0,4,126,4804.61
0,4,126,4805.87
0,4,126,4810.08
0,4,126,4806.14
0,4,128,4495.78
0,4,128,4496.8
0,4,128,4485.96
0,4,128,4478.21
0,4,128,4489.78
0,4,128,4486.67
0,4,128,4487.31
0,4,128,4499.26
0,4,128,4476.73
0,4,128,4484.55
0,4,130,3432.81
0,4,130,3425.13
0,4,130,3437.79
0,4,130,3429
0,4,130,3422.02
0,4,130,3429.91
0,4,130,3428.07
0,4,130,3425.68
0,4,130,3425.54
0,4,130,3430.17
0,4,132,5838.4
0,4,132,5832.44
0,4,132,5821.74
0,4,132,5830.85
0,4,132,5846.22
0,4,132,5835.35
0,4,132,5843.55
0,4,132,5853.06
0,4,132,5837.51
0,4,132,5826.56
0,4,134,3987.43
0,4,134,3977.68
0,4,134,3991.04
0,4,134,3983.04
0,4,134,3990.29
0,4,134,3978.19
0,4,134,3980.23
0,4,134,3986.48
0,4,134,3988.15
0,4,134,3985.81
0,4,136,5478.02
0,4,136,5471.39
0,4,136,5478.86
0,4,136,5475.2
0,4,136,5474.67
0,4,136,5470.45
0,4,136,5470.05
0,4,136,5470.34
0,4,136,5483.5
0,4,136,5464.29
0,4,138,4383.1
0,4,138,4387.59
0,4,138,4395.37
0,4,138,4382.39
0,4,138,4382.77
0,4,138,4386.9
0,4,138,4389.05
0,4,138,4375.3
0,4,138,4383.23
0,4,138,4391.59
0,4,140,3990.03
0,4,140,3986.22
0,4,140,3973.19
0,4,140,3977.36
0,4,140,3982.65
0,4,140,3985.71
0,4,140,3979.62
0,4,140,3971.03
0,4,140,3982.51
0,4,140,3977.13
0,4,142,5030.09
0,4,142,5019.33
0,4,142,5023.26
0,4,142,5020.54
0,4,142,5027.25
0,4,142,5021.87
0,4,142,5026.93
0,4,142,5034.45
0,4,142,5023.55
0,4,142,5025.38
0,4,144,3630.35
0,4,144,3628.27
0,4,144,3629.28
0,4,144,3624.27
0,4,144,3629.42
0,4,144,3628.53
0,4,144,3628.13
0,4,144,3626.25
0,4,144,3629.58
0,4,144,3626.66
0,4,146,5370.61
0,4,146,5373.5
0,4,146,5371.5
0,4,146,5367.43
0,4,146,5376.7
0,4,146,5371.48
0,4,146,5370.44
0,4,146,5361.11
0,4,146,5371.03
0,4,146,5373.37
0,4,148,4636.4
0,4,148,4639.29
0,4,148,4638.67
0,4,148,4637.12
0,4,148,4633.32
0,4,148,4639.61
0,4,148,4628.55
0,4,148,4639.14
0,4,148,4635.36
0,4,148,4629.97
0,4,150,5056.4
0,4,150,5049.08
0,4,150,5050.18
0,4,150,5054.28
0,4,150,5061.18
0,4,150,5050.88
0,4,150,5063.55
0,4,150,5048.74
0,4,150,5056.09
0,4,150,5040.45
0,5,30,135.297
0,5,30,133.946
0,5,30,133.126
0,5,30,133.053
0,5,30,132.751
0,5,30,131.724
0,5,30,133.235
0,5,30,132.671
0,5,30,130.015
0,5,30,133.532
0,5,32,168.905
0,5,32,170.725
0,5,32,165.838
0,5,32,171.108
0,5,32,166.082
0,5,32,170.798
0,5,32,166.591
0,5,32,168.268
0,5,32,165.953
0,5,32,169.539
0,5,34,284.753
0,5,34,284.993
0,5,34,280.854
0,5,34,284.846
0,5,34,280.967
0,5,34,280.881
0,5,34,284.125
0,5,34,287.841
0,5,34,283.017
0,5,34,286.573
0,5,36,371.337
0,5,36,370.12
0,5,36,371.484
0,5,36,365.054
0,5,36,369.909
0,5,36,366.342
0,5,36,368.387
0,5,36,366.712
0,5,36,368.705
0,5,36,368.03
0,5,38,457.903
0,5,38,454.906
0,5,38,459.669
0,5,38,459.884
0,5,38,481.658
0,5,38,458.236
0,5,38,454.931
0,5,38,454.883
0,5,38,457.649
0,5,38,457.94
0,5,40,586.79
0,5,40,589.807
0,5,40,586.895
0,5,40,585.23
0,5,40,585.771
0,5,40,587.46
0,5,40,587.733
0,5,40,587.491
0,5,40,588.35
0,5,40,587.406
0,5,42,783.09
0,5,42,784.111
0,5,42,779.405
0,5,42,780.367
0,5,42,780.386
0,5,42,784.532
0,5,42,786.011
0,5,42,784.485
0,5,42,782.902
0,5,42,780.516
0,5,44,850.615
0,5,44,851.378
0,5,44,848.765
0,5,44,848.087
0,5,44,851.469
0,5,44,850.418
0,5,44,850.84
0,5,44,851.891
0,5,44,846.326
0,5,44,850.658
0,5,46,662.776
0,5,46,659.219
0,5,46,660.308
0,5,46,659.224
0,5,46,656.543
0,5,46,658.592
0,5,46,661.035
0,5,46,659.39
0,5,46,655.705
0,5,46,659.137
0,5,48,913.546
0,5,48,911.18
0,5,48,912.708
0,5,48,912.228
0,5,48,912.018
0,5,48,915.172
0,5,48,909.303
0,5,48,912.824
0,5,48,912.96
0,5,48,910.314
0,5,50,1534.16
0,5,50,1536.57
0,5,50,1536.47
0,5,50,1537.17
0,5,50,1535.33
0,5,50,1536.46
0,5,50,1536.96
0,5,50,1535.71
0,5,50,1535.28
0,5,50,1537.24
0,5,52,1048.82
0,5,52,1049.98
0,5,52,1047.12
0,5,52,1048.24
0,5,52,1047.28
0,5,52,1047.85
0,5,52,1047.44
0,5,52,1047.03
0,5,52,1049.26
0,5,52,1045.59
0,5,54,2436.26
0,5,54,2433.92
0,5,54,2436.33
0,5,54,2436.42
0,5,54,2440.89
0,5,54,2431.65
0,5,54,2435.94
0,5,54,2431.07
0,5,54,2438.16
0,5,54,2432.7
0,5,56,1758.92
0,5,56,1760.45
0,5,56,1757.9
0,5,56,1756.88
0,5,56,1757.84
0,5,56,1758.35
0,5,56,1757.44
0,5,56,1756.97
0,5,56,1756.91
0,5,56,1755.62
0,5,58,1704.09
0,5,58,1699.92
0,5,58,1699.22
0,5,58,1701.04
0,5,58,1701.31
0,5,58,1702.54
0,5,58,1700.49
0,5,58,1702.02
0,5,58,1703.57
0,5,58,1702.31
0,5,60,2226.85
0,5,60,2222.8
0,5,60,2224.17
0,5,60,2222.25
0,5,60,2222.26
0,5,60,2223.81
0,5,60,2219.52
0,5,60,2223.24
0,5,60,2220.28
0,5,60,2221.65
0,5,62,1051.92
0,5,62,1049.15
0,5,62,1050.95
0,5,62,1050.73
0,5,62,1050.12
0,5,62,1044.62
0,5,62,1045.54
0,5,62,1049.73
0,5,62,1048.24
0,5,62,1046.53
0,5,64,2606.29
0,5,64,2607.56
0,5,64,2604.72
0,5,64,2603.07
0,5,64,2603.1
0,5,64,2604.42
0,5,64,2604.64
0,5,64,2602.84
0,5,64,2605.78
0,5,64,2605.71
0,5,66,2209.52
0,5,66,2209.26
0,5,66,2211.91
0,5,66,2211.64
0,5,66,2212.69
0,5,66,2211.62
0,5,66,2211.66
0,5,66,2211.7
0,5,66,2210.21
0,5,66,2213.49
0,5,68,1501.02
0,5,68,1503.29
0,5,68,1505
0,5,68,1502.58
0,5,68,1499.6
0,5,68,1504.76
0,5,68,1501.68
0,5,68,1502.31
0,5,68,1501.01
0,5,68,1501.36
0,5,70,1945.64
0,5,70,1943.51
0,5,70,1940.19
0,5,70,1938.96
0,5,70,1940.7
0,5,70,1942.96
0,5,70,1941.2
0,5,70,1939.76
0,5,70,1942.9
0,5,70,1943.21
0,5,72,2427.2
0,5,72,2425.35
0,5,72,2424.91
0,5,72,2426.96
0,5,72,2422.69
0,5,72,2423.52
0,5,72,2419.89
0,5,72,2417.23
0,5,72,2421.53
0,5,72,2419.98
0,5,74,2561.04
0,5,74,2563.37
0,5,74,2562.89
0,5,74,2558.8
0,5,74,2560.84
0,5,74,2562.8
0,5,74,2560.14
0,5,74,2556.16
0,5,74,2561.04
0,5,74,2556.86
0,5,76,1585.32
0,5,76,1589.9
0,5,76,1590.27
0,5,76,1588.26
0,5,76,1589.25
0,5,76,1585.54
0,5,76,1588.44
0,5,76,1588.43
0,5,76,1584.57
0,5,76,1586.13
0,5,78,1826.15
0,5,78,1828.34
0,5,78,1822.11
0,5,78,1822.66
0,5,78,1822.51
0,5,78,1821.98
0,5,78,1820.11
0,5,78,1825.48
0,5,78,1820.97
0,5,78,1824.22
0,5,80,1493.43
0,5,80,1493.17
0,5,80,1491.18
0,5,80,1492.06
0,5,80,1492.73
0,5,80,1491.2
0,5,80,1487.49
0,5,80,1489.31
0,5,80,1488.89
0,5,80,1489.1
0,5,82,5994.92
0,5,82,5994.63
0,5,82,5992.13
0,5,82,5995.43
0,5,82,5991.71
0,5,82,5996.42
0,5,82,5996.22
0,5,82,5996.97
0,5,82,5993.15
0,5,82,5994.85
0,5,84,1860.86
0,5,84,1863.73
0,5,84,1862.71
0,5,84,1858.28
0,5,84,1861.64
0,5,84,1854.9
0,5,84,1859.7
0,5,84,1861.24
0,5,84,1856.16
0,5,84,1862.27
0,5,86,1737.29
0,5,86,1736.6
0,5,86,1731.36
0,5,86,1735.2
0,5,86,1735.18
0,5,86,1732.83
0,5,86,1734.4
0,5,86,1736.88
0,5,86,1737.19
0,5,86,1736.16
0,5,88,2327.75
0,5,88,2329.7
0,5,88,2327.8
0,5,88,2328.39
0,5,88,2331.48
0,5,88,2328.27
0,5,88,2330.77
0,5,88,2329.39
0,5,88,2330.12
0,5,88,2329.86
0,5,90,2315.31
0,5,90,2309.55
0,5,90,2312.88
0,5,90,2312.65
0,5,90,2312.88
0,5,90,2313.66
0,5,90,2312.28
0,5,90,2309.28
0,5,90,2314.5
0,5,90,2312.4
0,5,92,1753.46
0,5,92,1750.89
0,5,92,1752.75
0,5,92,1748.93
0,5,92,1749.7
0,5,92,1751.9
0,5,92,1751.82
0,5,92,1748.98
0,5,92,1754.42
0,5,92,1751.01
0,5,94,3886.67
0,5,94,3882.58
0,5,94,3889.31
0,5,94,3886.24
0,5,94,3883.16
0,5,94,3879.9
0,5,94,3880.45
0,5,94,3887.53
0,5,94,3885.11
0,5,94,3884.19
0,5,96,2369.65
0,5,96,2367.21
0,5,96,2369.14
0,5,96,2371.15
0,5,96,2370.79
0,5,96,2369.09
0,5,96,2373.16
0,5,96,2373.36
0,5,96,2372.47
0,5,96,2375.72
0,5,98,3682.73
0,5,98,3677.74
0,5,98,3677.55
0,5,98,3670.91
0,5,98,3678.74
0,5,98,3675.64
0,5,98,3684.35
0,5,98,3678.72
0,5,98,3672.72
0,5,98,3674.51
0,5,100,2242.35
0,5,100,2241.69
0,5,100,2240.78
0,5,100,2246.3
0,5,100,2239.36
0,5,100,2244.81
0,5,100,2243.29
0,5,100,2245.36
0,5,100,2244.36
0,5,100,2240.6
0,5,102,3297.71
0,5,102,3298.88
0,5,102,3296.77
0,5,102,3293.92
0,5,102,3295.63
0,5,102,3301.77
0,5,102,3301.48
0,5,102,3300.26
0,5,102,3297.26
0,5,102,3297.91
0,5,104,2278.6
0,5,104,2277.48
0,5,104,2279.03
0,5,104,2278.34
0,5,104,2276.01
0,5,104,2278.64
0,5,104,2270.07
0,5,104,2278.08
0,5,104,2277
0,5,104,2278.42
0,5,106,6944.75
0,5,106,6949.29
0,5,106,6940.74
0,5,106,6946.89
0,5,106,6948.67
0,5,106,6944.91
0,5,106,6941.27
0,5,106,6940.33
0,5,106,6945.17
0,5,106,6935.65
0,5,108,3071.33
0,5,108,3070.4
0,5,108,3072.72
0,5,108,3069.15
0,5,108,3068.99
0,5,108,3066.82
0,5,108,3075.25
0,5,108,3068.93
0,5,108,3071.66
0,5,108,3066.43
0,5,110,4432.64
0,5,110,4434.35
0,5,110,4440.83
0,5,110,4432.31
0,5,110,4431.76
0,5,110,4443.36
0,5,110,4434.74
0,5,110,4433.18
0,5,110,4433.65
0,5,110,4432.6
0,5,112,4185.98
0,5,112,4187.21
0,5,112,4182.93
0,5,112,4178.14
0,5,112,4179.84
0,5,112,4182.33
0,5,112,4183.94
0,5,112,4184.13
0,5,112,4177.24
0,5,112,4185.72
0,5,114,2827.52
0,5,114,2824.25
0,5,114,2820.19
0,5,114,2818.81
0,5,114,2822.98
0,5,114,2819.43
0,5,114,2823.5
0,5,114,2822.37
0,5,114,2824.87
0,5,114,2821.28
0,5,116,5972.73
0,5,116,5964.14
0,5,116,5966.63
0,5,116,5958.29
0,5,116,5957.53
0,5,116,5963.46
0,5,116,5963.83
0,5,116,5958.61
0,5,116,5967.02
0,5,116,5958.62
0,5,118,6573.66
0,5,118,6560.1
0,5,118,6560.02
0,5,118,6560.42
0,5,118,6560.44
0,5,118,6564.22
0,5,118,6557.54
0,5,118,6582.09
0,5,118,6564.74
0,5,118,6564.19
0,5,120,3329.62
0,5,120,3322.57
0,5,120,3326.33
0,5,120,3328.83
0,5,120,3328.56
0,5,120,3325.91
0,5,120,3324.78
0,5,120,3326.82
0,5,120,3321.93
0,5,120,3323.25
0,5,122,4381.87
0,5,122,4387.44
0,5,122,4383.78
0,5,122,4385.55
0,5,122,4382.76
0,5,122,4386.4
0,5,122,4387.04
0,5,122,4383.82
0,5,122,4381.17
0,5,122,4381.76
0,5,124,3422.09
0,5,124,3415.23
0,5,124,3417.86
0,5,124,3417.98
0,5,124,3417.06
0,5,124,3414.55
0,5,124,3415.02
0,5,124,3416.94
0,5,124,3415.9
0,5,124,3417.86
0,5,126,5101.36
0,5,126,5102.9
0,5,126,5093.78
0,5,126,5100.15
0,5,126,5103.71
0,5,126,5101.19
0,5,126,5099.78
0,5,126,5105.19
0,5,126,5104.22
0,5,126,5101.98
0,5,128,2698.96
0,5,128,2697.3
0,5,128,2695.58
0,5,128,2691
0,5,128,2699.55
0,5,128,2687.91
0,5,128,2702.7
0,5,128,2692.6
0,5,128,2692.47
0,5,128,2692.55
0,5,130,4102.12
0,5,130,4100.24
0,5,130,4097.09
0,5,130,4102.57
0,5,130,4096.84
0,5,130,4096.94
0,5,130,4093.5
0,5,130,4094.01
0,5,130,4098.43
0,5,130,4093.6
0,5,132,4536.42
0,5,132,4526.6
0,5,132,4535.46
0,5,132,4531.85
0,5,132,4536
0,5,132,4527.58
0,5,132,4538.79
0,5,132,4530.32
0,5,132,4528.86
0,5,132,4529.44
0,5,134,4417.97
0,5,134,4411.76
0,5,134,4425.45
0,5,134,4408.71
0,5,134,4421.2
0,5,134,4412.32
0,5,134,4411.78
0,5,134,4424.96
0,5,134,4411.81
0,5,134,4412.76
0,5,136,4328.15
0,5,136,4313.52
0,5,136,4312.93
0,5,136,4310.09
0,5,136,4336
0,5,136,4314.05
0,5,136,4324.33
0,5,136,4315.75
0,5,136,4315.27
0,5,136,4317.02
0,5,138,3776.43
0,5,138,3774.89
0,5,138,3773.43
0,5,138,3767.63
0,5,138,3764.49
0,5,138,3768.8
0,5,138,3772.98
0,5,138,3775.08
0,5,138,3777.75
0,5,138,3780.83
0,5,140,4297.16
0,5,140,4289.51
0,5,140,4298.27
0,5,140,4296.57
0,5,140,4296.08
0,5,140,4295.37
0,5,140,4296.75
0,5,140,4290.04
0,5,140,4295.69
0,5,140,4285.25
0,5,142,4610.54
0,5,142,4604.83
0,5,142,4610.04
0,5,142,4615.37
0,5,142,4615.57
0,5,142,4620.96
0,5,142,4613.47
0,5,142,4617.91
0,5,142,4608.59
0,5,142,4618.28
0,5,144,4638.68
0,5,144,4628.78
0,5,144,4641.47
0,5,144,4648.44
0,5,144,4636.44
0,5,144,4640.53
0,5,144,4644.51
0,5,144,4639.79
0,5,144,4656.37
0,5,144,4645.28
0,5,146,5265.07
0,5,146,5262.44
0,5,146,5262.18
0,5,146,5259.25
0,5,146,5263.42
0,5,146,5260.61
0,5,146,5263.07
0,5,146,5258.01
0,5,146,5260.58
0,5,146,5267.72
0,5,148,3892.17
0,5,148,3882.14
0,5,148,3877.02
0,5,148,3877.05
0,5,148,3877.16
0,5,148,3875.67
0,5,148,3878.06
0,5,148,3881.23
0,5,148,3881.8
0,5,148,3879.44
0,5,150,5244.66
0,5,150,5238.26
0,5,150,5230.28
0,5,150,5231.54
0,5,150,5233.98
0,5,150,5231.64
0,5,150,5230.9
0,5,150,5240.81
0,5,150,5248.69
0,5,150,5245.05
