\relax 
\catcode `"\active 
\catcode `<\active 
\catcode `>\active 
\@nameuse{es@quoting}
\select@language{spanish}
\@writefile{toc}{\select@language{spanish}}
\@writefile{lof}{\select@language{spanish}}
\@writefile{lot}{\select@language{spanish}}
\@writefile{toc}{\contentsline {section}{\numberline {1}Hiperconectados}{1}}
\@writefile{toc}{\contentsline {subsection}{\numberline {1.1}Introducci\IeC {\'o}n}{1}}
\@writefile{toc}{\contentsline {subsubsection}{\numberline {1.1.1}Ejemplo}{1}}
\@writefile{lof}{\contentsline {figure}{\numberline {1}{\ignorespaces Grafo\relax }}{1}}
\@writefile{lof}{\contentsline {figure}{\numberline {2}{\ignorespaces \IeC {\'A}rbol generador m\IeC {\'\i }nimo 1\relax }}{1}}
\@writefile{lof}{\contentsline {figure}{\numberline {3}{\ignorespaces \IeC {\'A}rbol generador m\IeC {\'\i }nimo 2\relax }}{2}}
\@writefile{lof}{\contentsline {figure}{\numberline {4}{\ignorespaces \IeC {\'A}rbol generador m\IeC {\'\i }nimo 3\relax }}{2}}
\@writefile{toc}{\contentsline {subsection}{\numberline {1.2}Desarrollo}{2}}
\newlabel{lema:circuito_agm}{{1.1}{2}}
\newlabel{prop:algun_agm_afuera}{{1.2}{2}}
\newlabel{prop:todos_agm}{{1.3}{2}}
\newlabel{obs:todos_agm_peso_aristas}{{1.3.1}{3}}
\newlabel{prop:algun_agm_adentro}{{1.4}{3}}
\@writefile{toc}{\contentsline {subsubsection}{\numberline {1.2.1}El algoritmo}{3}}
\newlabel{enum:obtener_agm}{{1}{3}}
\newlabel{enum:marcar_algunos}{{2}{3}}
\newlabel{enum:marcar_todos}{{3}{4}}
\@writefile{loa}{\contentsline {algorithm}{\numberline {1.1}{\ignorespaces Dado un grafo $G$, resuelve el problema Hiperconectados\relax }}{4}}
\providecommand*\caption@xref[2]{\@setref\relax\@undefined{#1}}
\newlabel{alg:hiperconectados}{{1.1}{4}}
\@writefile{loa}{\contentsline {algorithm}{\numberline {1.2}{\ignorespaces Dado un grafo $G$, devuelve un diccionario $V(G) \to V(G)$ de predecesores, un diccionario $V(G) \to E(G)$ de aristas al predecesor y un diccionario $V(G) \to \mathbb  {N}_0$ de distancias a la ra\IeC {\'\i }z que definen un AGM enraizado de $G$.\relax }}{4}}
\newlabel{alg:obtener_agm}{{1.2}{4}}
\@writefile{loa}{\contentsline {algorithm}{\numberline {1.3}{\ignorespaces Dado un grafo $G$ y los diccionarios $P$, $A$ y $D$ que devuelve el algoritmo \ref  {alg:obtener_agm}, devuelve un diccionario $S$ que indica si una arista pertenece a alguno, ninguno o todos los AGMs de $G$.\relax }}{5}}
\newlabel{alg:obtener_soluciones}{{1.3}{5}}
\citation{cormen}
\citation{cormen}
\citation{cormen}
\citation{cormen}
\citation{cormen}
\@writefile{toc}{\contentsline {subsubsection}{\numberline {1.2.2}Correctitud y complejidad}{6}}
\@writefile{toc}{\contentsline {subsection}{\numberline {1.3}Experimentaci\IeC {\'o}n}{6}}
\@writefile{toc}{\contentsline {subsubsection}{\numberline {1.3.1}Generaci\IeC {\'o}n de casos}{6}}
\@writefile{toc}{\contentsline {subsubsection}{\numberline {1.3.2}Resultados}{7}}
\@writefile{lof}{\contentsline {figure}{\numberline {5}{\ignorespaces Comparaci\IeC {\'o}n de los tiempos para los tres algoritmos de AGM\relax }}{7}}
\@writefile{toc}{\contentsline {paragraph}{Respaldo emp\IeC {\'\i }rico}{7}}
\@writefile{lof}{\contentsline {figure}{\numberline {7}{\ignorespaces Cocientes\relax }}{8}}
\@writefile{lof}{\contentsline {figure}{\numberline {9}{\ignorespaces Cocientes\relax }}{8}}
\@writefile{toc}{\contentsline {section}{\numberline {2}Hiperauditados}{8}}
\@writefile{toc}{\contentsline {subsection}{\numberline {2.1}Introducci\IeC {\'o}n}{8}}
\@writefile{toc}{\contentsline {subsubsection}{\numberline {2.1.1}Ejemplo}{8}}
\@writefile{lof}{\contentsline {figure}{\numberline {10}{\ignorespaces Grafo\relax }}{9}}
\@writefile{toc}{\contentsline {subsection}{\numberline {2.2}Desarrollo}{9}}
\newlabel{prop:propiedades_paradas}{{2.1}{9}}
\newlabel{enum:parada_camino_minimo}{{1}{9}}
\newlabel{enum:paradas_cargar_justo}{{2}{9}}
\newlabel{enum:paradas_cargar_todo}{{3}{9}}
\newlabel{enum:paradas_ultima_parada}{{4}{9}}
\newlabel{lema:cota_litros_en_tanque}{{2.2}{11}}
\newlabel{prop:cota_paradas}{{2.3}{11}}
\citation{cormen}
\citation{teorica}
\@writefile{toc}{\contentsline {subsubsection}{\numberline {2.2.1}El algoritmo}{12}}
\@writefile{loa}{\contentsline {algorithm}{\numberline {2.1}{\ignorespaces Dado un grafo $G$ que modela las ciudades y las rutas, resuelve el problema Hiperauditados\relax }}{12}}
\newlabel{alg:hiperauditados}{{2.1}{12}}
\@writefile{loa}{\contentsline {algorithm}{\numberline {2.2}{\ignorespaces Dado un diccionario $M$ de memoization, un grafo $G$, un diccionario $D$ de caminos m\IeC {\'\i }nimos de $G$, un v\IeC {\'e}rtice origen $u$, un v\IeC {\'e}rtice destino $v$, una cantidad de combustible $l$, una cantidad m\IeC {\'a}xima de paradas $k$, guarda en $M$ y devuelve $f_v(u, l, k)$\relax }}{12}}
\newlabel{alg:hiperauditados_pd}{{2.2}{12}}
\@writefile{toc}{\contentsline {subsubsection}{\numberline {2.2.2}Correctitud y complejidad}{12}}
\citation{a_estrella}
\bibcite{cormen}{1}
\bibcite{teorica}{2}
\bibcite{a_estrella}{3}
